\relax 
\@writefile{toc}{\contentsline {section}{\numberline {I}Homework}{2}\protected@file@percent }
\@writefile{toc}{\contentsline {subsection}{\numberline {I}Exercise - Daboni 1}{2}\protected@file@percent }
\@writefile{toc}{\contentsline {subsection}{\numberline {II}Exercise - Daboni 2}{3}\protected@file@percent }
\@writefile{toc}{\contentsline {section}{\numberline {II}Homework}{4}\protected@file@percent }
\@writefile{toc}{\contentsline {subsection}{\numberline {I}Exercise - Committed by FCS}{4}\protected@file@percent }
\@writefile{toc}{\contentsline {subsection}{\numberline {II}Exercise - 2.7 Hoff}{4}\protected@file@percent }
\@writefile{toc}{\contentsline {section}{\numberline {III}Homework}{5}\protected@file@percent }
\@writefile{toc}{\contentsline {subsection}{\numberline {I}Exercise - 3.6 Hoff}{5}\protected@file@percent }
\@writefile{toc}{\contentsline {subsection}{\numberline {II}Exercise - 3.9 Hoff}{6}\protected@file@percent }
\@writefile{lof}{\contentsline {figure}{\numberline {1}{\ignorespaces Galenshore distributions in function of different parameters.\relax }}{6}\protected@file@percent }
\@writefile{toc}{\contentsline {section}{\numberline {IV}Homework}{8}\protected@file@percent }
\@writefile{toc}{\contentsline {subsection}{\numberline {I}Exercise - 5.2 Hoff}{8}\protected@file@percent }
\@writefile{lol}{\contentsline {lstlisting}{./code/5\textendash 2.py}{8}\protected@file@percent }
\@writefile{toc}{\contentsline {subsection}{\numberline {II}Exercise - Committed by FCS}{10}\protected@file@percent }
\@writefile{lol}{\contentsline {lstlisting}{./code/es\textunderscore importance\textunderscore sampling.py}{10}\protected@file@percent }
\@writefile{toc}{\contentsline {section}{\numberline {V}Homework}{11}\protected@file@percent }
\@writefile{toc}{\contentsline {subsection}{\numberline {I}Exercise - 7.3 Hoff}{11}\protected@file@percent }
\@writefile{lol}{\contentsline {lstlisting}{./code/7\textendash 3.py}{11}\protected@file@percent }
\@writefile{toc}{\contentsline {section}{\numberline {VI}Homework}{16}\protected@file@percent }
\@writefile{toc}{\contentsline {subsection}{\numberline {I}Exercise - 8.3 Hoff}{16}\protected@file@percent }
\@writefile{lol}{\contentsline {lstlisting}{./code/8\textendash 3.py}{16}\protected@file@percent }
\@writefile{lof}{\contentsline {figure}{\numberline {3}{\ignorespaces Trace plots of $\mu ^2$, $\tau ^2$ and $\sigma ^2$ with 4000 iterations.\relax }}{20}\protected@file@percent }
\@writefile{lof}{\contentsline {figure}{\numberline {4}{\ignorespaces Autocorrelation functions on chains relative to $\mu ^2$, $\tau ^2$ and $\sigma ^2$ until lag 20. \relax }}{22}\protected@file@percent }
\@writefile{lof}{\contentsline {figure}{\numberline {5}{\ignorespaces Distribution of $R^2=\frac  {\tau ^2}{\tau ^2 + \sigma ^2}$.\relax }}{22}\protected@file@percent }
\@writefile{toc}{\contentsline {section}{\numberline {VII}Homework}{23}\protected@file@percent }
\@writefile{toc}{\contentsline {subsection}{\numberline {I}Exercise - 9.2 Hoff}{23}\protected@file@percent }
\@writefile{lol}{\contentsline {lstlisting}{./code/9\textendash 2.py}{23}\protected@file@percent }
\@writefile{toc}{\contentsline {section}{\numberline {VIII}Homework}{26}\protected@file@percent }
\@writefile{toc}{\contentsline {subsection}{\numberline {I}Exercise - 10.2 Hoff}{26}\protected@file@percent }
\@writefile{lol}{\contentsline {lstlisting}{./code/10\textendash 2.py}{26}\protected@file@percent }
\@writefile{lof}{\contentsline {figure}{\numberline {6}{\ignorespaces Trace plots relative to $\alpha $ and $\beta $ generated by 10k iterations of Metropolis algorithm.\relax }}{28}\protected@file@percent }
